week-13: College Sports
…
Loading

tt <- tt_load("2022-03-29")

    Downloading file 1 of 1: `sports.csv`

data <- tt$sports

Exploring and wrangling

# Sports categories
data %>% 
  count(sports, sort = TRUE)  

# A tibble: 38 × 2
   sports                         n
   <chr>                      <int>
 1 Basketball                 10000
 2 Volleyball                  9122
 3 Soccer                      8647
 4 Baseball                    8644
 5 Softball                    8560
 6 Golf                        7060
 7 Tennis                      6418
 8 Football                    5310
 9 Track and Field, X-Country  4923
10 All Track Combined          4870
# … with 28 more rows
…
